Didacticiel 03 - Générer des données factices à des fins pédagogiques avec fakir
…
2.3 génération des jeux de données, description des paramètres et début d’analyse visuelles

2.3.1 fake_product()

Cette fonction dispose de deux arguments n et la seed et nous renvoie une liste de produits factices.

products <- fake_products(1000, seed = 2023)
products

# A tibble: 1,000 × 8
   name                 brand color price body_location category sent_from    id
   <chr>                <chr> <chr> <int> <chr>         <chr>    <chr>     <int>
 1 Multifunction Track… Bern… Yell…   721 Arms          Lifesty… Italy         1
 2 Footpod IN           Bern… Olive   172 Brain         Fitness  Japan         2
 3 Running Tracker LI … Paco… Corn…   698 Head          Medical  Italy         3
 4 Wearable Transmitte… Haye… Gold    399 Arms          Fitness  South Ko…     4
 5 Footpod              Klei… Dark…   312 Feet          Awesome  Japan         5
 6 Activity Tracker ER… Haye… Crim…   960 Brain         Medical  Austria       6
 7 Running Tracker Pro… Wyma… Peac…    37 Chest         Enterta… France        7
 8 Loop Activity Track… Klei… Dark…    35 Wrist         Awesome  South Ko…     8
 9 Fitness Tracker BHC… Hamm… Black   764 Waist         Industr… Italy         9
10 Biking Tracker GE    Webe… Nava…   862 Arms          Pets an… United S…    10
# ℹ 990 more rows
…
On peut évidemment changer le n choisi pour avoir plus de données, la commande génère le nouveau dataset relativement rapidement (même pour n = 10000).

fake_products(1000, seed = 2023)

# A tibble: 1,000 × 8
   name                 brand color price body_location category sent_from    id
   <chr>                <chr> <chr> <int> <chr>         <chr>    <chr>     <int>
 1 Multifunction Track… Bern… Yell…   721 Arms          Lifesty… Italy         1
 2 Footpod IN           Bern… Olive   172 Brain         Fitness  Japan         2
 3 Running Tracker LI … Paco… Corn…   698 Head          Medical  Italy         3
 4 Wearable Transmitte… Haye… Gold    399 Arms          Fitness  South Ko…     4
 5 Footpod              Klei… Dark…   312 Feet          Awesome  Japan         5
 6 Activity Tracker ER… Haye… Crim…   960 Brain         Medical  Austria       6
 7 Running Tracker Pro… Wyma… Peac…    37 Chest         Enterta… France        7
 8 Loop Activity Track… Klei… Dark…    35 Wrist         Awesome  South Ko…     8
 9 Fitness Tracker BHC… Hamm… Black   764 Waist         Industr… Italy         9
10 Biking Tracker GE    Webe… Nava…   862 Arms          Pets an… United S…    10
# ℹ 990 more rows

fake_products(1000, seed = 1999)

# A tibble: 1,000 × 8
   name                 brand color price body_location category sent_from    id
   <chr>                <chr> <chr> <int> <chr>         <chr>    <chr>     <int>
 1 Activity Monitor SN  Koze… Fuch…   240 Arms          Enterta… Taiwan        1
 2 Wearable Transmitte… Coll… Dark…   790 Torso         Industr… Italy         2
 3 Exercise Tracker ES  Stie… Ligh…   695 Torso         Fitness  France        3
 4 Running Tracker      Schm… Khaki   970 Neck          Fitness  France        4
 5 Wearable Transmitte… Vand… Yell…   402 Feet          Gaming   Canada        5
 6 Training System      Coll… HotP…   600 Arms          Medical  Italy         6
 7 Loop Activity Track… Absh… Ligh…   368 Arms          Fitness  Finland       7
 8 Wearable Transmitte… Stie… Coral   567 Wrist         Medical  China         8
 9 Watch SCLV           Olso… White   872 Wrist         Fitness  China         9
10 Wearable Transmitte… Koze… Cade…   637 Wrist         Awesome  Austria      10
# ℹ 990 more rows

fake_products(10000, seed = 2023)

# A tibble: 10,000 × 8
   name                 brand color price body_location category sent_from    id
   <chr>                <chr> <chr> <int> <chr>         <chr>    <chr>     <int>
 1 Multifunction Track… Wuns… Dodg…  9327 Hands         Industr… Italy         1
 2 Footpod IN           Bode… Dark…  3276 Torso         Fitness  China         2
 3 Running Tracker LI … John… Ligh…  1810 Hands         Fitness  Austria       3
 4 Wearable Transmitte… John… Teal   2177 Arms          Enterta… Netherla…     4
 5 Footpod              Jenk… Medi…  9693 Neck          Enterta… United S…     5
 6 Activity Tracker ER… Bloc… Midn…  1957 Torso         Pets an… Canada        6
 7 Running Tracker Pro… Schm… Pale…  1418 Waist         Lifesty… United S…     7
 8 Loop Activity Track… Wuns… Lemo…  5726 Hands         Gaming   Canada        8
 9 Fitness Tracker BHC… John… Fore…  9958 Arms          Fitness  Finland       9
10 Biking Tracker GE    Vand… Alic…  2711 Head          Pets an… Japan        10
# ℹ 9,990 more rows

Le nom des marques change (aussi si l’on change la graine) mais le nombre total de marques différentes ne paraît jamais dépasser 13-14.

2.3.2 fake_visit()

Cette fonction nous renvoie une base de données temporelles listant les visites sur un site internet. Contrairement au reste des fonctions du package fake_visit(), il ne dispose pas de paramètre n mais de la date de début et de fin.

visits <- fake_visits(from = "2022-01-01", to = "2022-12-31", seed = 2023, local = "en_US")
visits

# A tibble: 365 × 8
   timestamp   year month   day  home about  blog contact
 * <date>     <dbl> <dbl> <int> <int> <int> <int>   <int>
 1 2022-01-01  2022     1     1    NA   185   499     158
 2 2022-01-02  2022     1     2   460    NA   463     394
 3 2022-01-03  2022     1     3   342   119   359     281
 4 2022-01-04  2022     1     4   381   260   502     468
 5 2022-01-05  2022     1     5    NA   291   460     262
 6 2022-01-06  2022     1     6   453   284    NA     101
 7 2022-01-07  2022     1     7    NA   198   439     226
 8 2022-01-08  2022     1     8   128    NA   366     172
 9 2022-01-09  2022     1     9   148    NA   324      NA
10 2022-01-10  2022     1    10   480    NA   372      75
# ℹ 355 more rows
…
Il serait assez intéressant d’avoir des commentaires, tout du moins pour certains individus, afin de permettre de travailler le traitement de données textuelles.

2.3.4 fake_survey_answer() et fake_survey_people()

Ces fonctions sont un petit peu plus complète que les précédentes:

‘fake_survey_answer()’ renvoie un jeu de données factice de réponse à 3 formulaires de questions (3 lignes par indivus) sur les déplacement, et ce accompagné certaines variables individuelles (id, sexe et département/région).

survey_a <- fake_survey_answers(n = 300, split = FALSE, seed = 2023)
survey_a

# A tibble: 900 × 12
   id_individu    age sexe  region               id_departement nom_departement
   <chr>        <int> <chr> <chr>                <chr>          <chr>          
 1 ID-SXEM-0155    NA F     Languedoc-Roussillon 34             Hérault        
 2 ID-SXEM-0155    NA F     Languedoc-Roussillon 34             Hérault        
 3 ID-SXEM-0155    NA F     Languedoc-Roussillon 34             Hérault        
 4 ID-ZOUR-0016    NA F     <NA>                 21             <NA>           
 5 ID-ZOUR-0016    NA F     <NA>                 21             <NA>           
 6 ID-ZOUR-0016    NA F     <NA>                 21             <NA>           
 7 ID-IRGX-0008    80 M     Midi-Pyrénées        82             <NA>           
 8 ID-IRGX-0008    80 M     Midi-Pyrénées        82             <NA>           
 9 ID-IRGX-0008    80 M     Midi-Pyrénées        82             <NA>           
10 ID-NFIQ-0147    72 <NA>  Poitou-Charentes     79             <NA>           
# ℹ 890 more rows
# ℹ 6 more variables: question_date <dttm>, year <dbl>, type <chr>,
#   distance_km <dbl>, transport <fct>, temps_trajet_en_heures <dbl>
…
‘fake_survey_people()’ renvoie une base de n lignes listant les individus et leurs caractéristiques sans les réponses.

survey_p <- fake_survey_people(n = 300, seed = 2023)
survey_p

# A tibble: 300 × 8
   id_individu    age sexe  region                id_departement nom_departement
   <chr>        <int> <chr> <chr>                 <chr>          <chr>          
 1 ID-SXEM-0155    NA F     Provence-Alpes-Côte … 06             Alpes-Maritimes
 2 ID-ZOUR-0016    NA F     <NA>                  67             Bas-Rhin       
 3 ID-IRGX-0008    80 M     Centre                28             Eure-et-Loir   
 4 ID-NFIQ-0147    72 <NA>  Lorraine              55             Meuse          
 5 ID-VAHB-0178    80 M     Rhône-Alpes           73             Savoie         
 6 ID-AZJG-0189    38 F     Aquitaine             33             Gironde        
 7 ID-EXIL-0173    72 O     Poitou-Charentes      17             Charente-Marit…
 8 ID-ENUF-0191    24 F     Alsace                68             Haut-Rhin      
 9 ID-JOSX-0096    28 F     Midi-Pyrénées         65             Hautes-Pyrénées
10 ID-KEOG-0077    26 O     Basse-Normandie       50             Manche         
# ℹ 290 more rows
# ℹ 2 more variables: question_date <dttm>, year <dbl>
…
      year     
 Min.   :2016  
 1st Qu.:2021  
 Median :2022  
 Mean   :2022  
 3rd Qu.:2023  
 Max.   :2023  

Ces deux fonctions acceptent des paramètres semblables aux précédentes : net la seed. fake_survey_answer() permet d’obtenir les bases jointes (individus et réponses) ou disjointes (deux bases séparée) selon l’option split = TRUE ou split = FALSE comme nous pouvons le voir ci-dessous.

survey <- fake_survey_answers(n = 300, split = TRUE, seed = 2023)
survey

$individus
# A tibble: 300 × 8
   id_individu    age sexe  region                id_departement nom_departement
   <chr>        <int> <chr> <chr>                 <chr>          <chr>          
 1 ID-SXEM-0155    NA F     Provence-Alpes-Côte … 83             Var            
 2 ID-ZOUR-0016    NA F     Lorraine              54             Meurthe-et-Mos…
 3 ID-IRGX-0008    80 M     Provence-Alpes-Côte … 84             <NA>           
 4 ID-NFIQ-0147    72 <NA>  <NA>                  23             Creuse         
 5 ID-VAHB-0178    80 M     <NA>                  39             <NA>           
 6 ID-AZJG-0189    38 F     Île-de-France         94             Val-de-Marne   
 7 ID-EXIL-0173    72 O     Centre                18             Cher           
 8 ID-ENUF-0191    24 F     Rhône-Alpes           73             Savoie         
 9 ID-JOSX-0096    28 F     Rhône-Alpes           26             Drôme          
10 ID-KEOG-0077    26 O     Midi-Pyrénées         46             Lot            
# ℹ 290 more rows
# ℹ 2 more variables: question_date <dttm>, year <dbl>

$answers
# A tibble: 900 × 5
   id_individu  type      distance_km transport temps_trajet_en_heures
   <chr>        <chr>           <dbl> <fct>                      <dbl>
 1 ID-SXEM-0155 travail          9.51 bus                         0.89
 2 ID-SXEM-0155 commerces       22.2  voiture                     0.3 
 3 ID-SXEM-0155 loisirs         97.4  train                       0.19
 4 ID-ZOUR-0016 travail          8.94 bus                         0.95
 5 ID-ZOUR-0016 commerces       27.4  voiture                     0.34
 6 ID-ZOUR-0016 loisirs        577.   avion                       0.29
 7 ID-IRGX-0008 travail          3.47 velo                        0.65
 8 ID-IRGX-0008 commerces       43.8  voiture                     0.6 
 9 ID-IRGX-0008 loisirs        142.   train                       0.29
10 ID-NFIQ-0147 travail          4.83 velo                        1.03
# ℹ 890 more rows

On peut donc faire des jointures sur les bases si besoin :

survey_merged <- merge(survey$individus,survey$answers,by="id_individu")
as_tibble(survey_merged)

# A tibble: 900 × 12
   id_individu    age sexe  region            id_departement nom_departement
   <chr>        <int> <chr> <chr>             <chr>          <chr>          
 1 ID-AFDY-0010    40 O     Picardie          80             Somme          
 2 ID-AFDY-0010    40 O     Picardie          80             Somme          
 3 ID-AFDY-0010    40 O     Picardie          80             Somme          
 4 ID-AFZS-0112    26 O     Auvergne          63             Puy-de-Dôme    
 5 ID-AFZS-0112    26 O     Auvergne          63             Puy-de-Dôme    
 6 ID-AFZS-0112    26 O     Auvergne          63             Puy-de-Dôme    
 7 ID-AGKE-0271    69 M     Champagne-Ardenne 51             Marne          
 8 ID-AGKE-0271    69 M     Champagne-Ardenne 51             Marne          
 9 ID-AGKE-0271    69 M     Champagne-Ardenne 51             Marne          
10 ID-AGQK-0225    NA F     Basse-Normandie   61             Orne           
# ℹ 890 more rows
# ℹ 6 more variables: question_date <dttm>, year <dbl>, type <chr>,
#   distance_km <dbl>, transport <fct>, temps_trajet_en_heures <dbl>
…
Ici par exemple, on note bien les différences en terme de moyens de transports utilisés selon le type de besoin et la corrélation entre temps et distance.

2.3.5 fake_base_clients et fake_ticket_client

Ici, nous avons affaire à des fonctions renvoyant une base de données client (nom, age, emploi, département, type de carte, statut de fidélité) et une liste de ticket au support d’une entreprise de télécom. Il est possible de les obtenir jointes ou disjointes et d’en déterminer le nombre d’observations (npour le nombre d’individus et vol pour le nombre de tickets).

client_ticket <- fake_ticket_client(1000, n = 500, split = TRUE, local = "fr_FR", seed=2023)
client_ticket

$clients
# A tibble: 500 × 14
   num_client prenom nom   job     age region id_dpt departement gestionnaire_cb
 * <chr>      <chr>  <chr> <chr> <dbl> <chr>  <chr>  <chr>       <chr>          
 1 1          Anouk  Mart… Ingé…    25 Bourg… 89     Yonne       Discover       
 2 2          Chris… d'Au… Audi…    46 Nord-… 59     Nord        <NA>           
 3 3          Édith  Réna… Cons…    58 Centre 41     Loir-et-Ch… <NA>           
 4 4          Nicole d'Fi… Cons…    36 Haute… 27     Eure        <NA>           
 5 5          Jacqu… L'Ri… Visi…    51 Haute… 27     Eure        Maestro        
 6 6          Arthur Laur… <NA>     38 Breta… 22     Côtes-d'Ar… JCB 16 digit   
 7 7          Marga… Jaco… Ingé…    19 Prove… 84     Vaucluse    Mastercard     
 8 8          David  Lopé… Cond…    46 Haute… 27     Eure        <NA>           
 9 9          Nicol… Turp… Vend…    47 <NA>   76     Seine-Mari… <NA>           
10 10         Susan… Lamy  Garde    37 Poito… 16     Charente    <NA>           
# ℹ 490 more rows
# ℹ 5 more variables: nom_complet <chr>, entry_date <dttm>,
#   points_fidelite <dbl>, priorite_encodee <dbl>, priorite <fct>

$tickets
# A tibble: 1,000 × 10
   ref        num_client annee  mois  jour timestamp  pris_en_charge type  etat 
   <chr>      <chr>      <dbl> <dbl> <int> <date>     <chr>          <chr> <fct>
 1 DOSS-ZFVJ… 2           2018     8    22 2018-08-22 Oui            Ligne Term…
 2 DOSS-VUTR… 2           2018    11    27 2018-11-27 Non            Ligne En c…
 3 DOSS-MROS… 7           2019     2     2 2019-02-02 Oui            Box   Inte…
 4 DOSS-JDYN… 7           2019     3    22 2019-03-22 Oui            Inst… En c…
 5 DOSS-OLUD… 7           2019     6    18 2019-06-18 Non            Box   Term…
 6 DOSS-JAXY… 6           2019     8     4 2019-08-04 Non            Box   Inte…
 7 DOSS-MICA… 8           2019     9     3 2019-09-03 Oui            Ligne En c…
 8 DOSS-TSAV… 5           2019     9     6 2019-09-06 Oui            Box   Inte…
 9 DOSS-UTKD… 9           2019     9    15 2019-09-15 Non            Ligne En c…
10 DOSS-LSYT… 15          2019     9    21 2019-09-21 Non            Ligne Atte…
# ℹ 990 more rows
# ℹ 1 more variable: source_appel <fct>

fake_base_clients(500, local = "en_US")

# A tibble: 500 × 14
   num_client first   last     job     age region id_dpt departement cb_provider
 * <chr>      <chr>   <chr>    <chr> <dbl> <chr>  <chr>  <chr>       <chr>      
 1 1          Laken   McDermo… Clin…    50 Breta… 35     Ille-et-Vi… Diners Clu…
 2 2          Dr.     KamariK… Educ…    66 <NA>   73     Savoie      JCB 15 dig…
 3 3          Ciarra  Willms   Comm…    64 <NA>   62     Pas-de-Cal… Mastercard 
 4 4          Dr.     JoyPadb… Cons…    79 <NA>   44     Loire-Atla… VISA 16 di…
 5 5          Miss    MellieK… Engi…    54 Limou… 23     Creuse      American E…
 6 6          Miss    Krystin… Fiel…    68 Île-d… 75     Paris       VISA 16 di…
 7 7          Kristin DuBuque  Envi…    18 Poito… 86     Vienne      JCB 16 dig…
 8 8          Dr.     OlinHer… Bari…    32 Auver… 15     Cantal      Voyager    
 9 9          Mr.     BorisSe… Scie…    46 Pays … 53     Mayenne     VISA 16 di…
10 10         Rowan   Mraz     Opti…    18 Île-d… 78     Yvelines    VISA 16 di…
# ℹ 490 more rows
# ℹ 5 more variables: name <chr>, entry_date <dttm>, fidelity_points <dbl>,
#   priority_encoded <dbl>, priority <fct>
…
